A01002=100
CodiceStudioSecondario4=
A01001=2
CodiceStudioSecondario3=
CodiceStudioSecondario2=
B00001=1
D01801=40
E01401=1
CodiceFiscaleCAF2=
D03901=30
CodiceStudioSecondario3Ricavi=0
NomeApplicazione=2013
F01901=278991
D04501=25
D01601=10
F02501=125353
Nome=
Z00201=5
D03701=10
F01701=191351
D04301=25
B00501=548
E00404=1
E00403=2
E00402=1
D02001=97
DNM1=0
CodiceStudioRicavi=0
Z00901=5
FlagAnomalie=0
Progressivo=1
B00301=44
AM6=
H00101=
AM5=
D05601=306162
AM4=
AM3=
AnnoProduzione=2013
AM2=
AM1=
Versione=1.0.4
D03301=4
A01102=100
MesiAttPerImp=0
A01101=1
B00101=H501
D04801=191351
F02801=4484252
KFCALC=1
RicaviAggiFissi=0
CodiceStudioSecondario4Ricavi=0
AM12=
AM11=
AM10=
SCM1=A
ModelloDichiarazione=7
D01701=10
CodiceFiscale=07802841002
CodiceStudio=VG68U
FlagNonNum=0
RigaFileGuida=12565385*VG68U*07802841002*494100*1*2013*0*1*0*0*1*5205942*0*0*1*0*0*00000000000000000219
CodiceFiscaleCAF=
A00101=9585
D03801=30
F01801=66595
CompMan=0
D04401=25
RicaviAltreAttNonStudi=0
B00601=2000
D01501=40
CodiceStudioSecondario2Ricavi=0
E01104=16
D02101=3
Denominazione=00000000000000000219
E01102=16
CodiceCatastale=H501
E01101=1
CodiceAttivita=494100
F00101=5205942
Cognome=
Euro=1
Z00101=90
D04201=25
F02201=6697
RicaviAltreAttStudi=0
Omocodice=0
D03401=95
E02401=2296211
A01201=1
D04001=30
D04901=344432
E00104=1
F02002=52703
E00103=2
F02001=52703
OmocodiceCAF=0
E00102=1
InizioCessazione=0
F02901=2296211
OmocodiceCAF2=0
AM50=
FlagNonAmm=0
D03201=1
Anno=2013
