<svg width="45" height="45" viewBox="0 0 45 45" fill="none" xmlns="http://www.w3.org/2000/svg">
<path d="M41.25 22.5C41.25 32.8538 32.8538 41.25 22.5 41.25C12.1463 41.25 3.75 32.8538 3.75 22.5C3.75 12.1463 12.1463 3.75 22.5 3.75C32.8538 3.75 41.25 12.1463 41.25 22.5Z" fill="#F9B232"/>
<path d="M37.5 22.5C37.5 30.7856 30.7856 37.5 22.5 37.5C14.2144 37.5 7.5 30.7856 7.5 22.5C7.5 14.2144 14.2153 7.5 22.5 7.5C30.7847 7.5 37.5 14.2153 37.5 22.5Z" fill="#EEEEEE"/>
<path d="M21.5625 10.3125H23.4375V22.5H21.5625V10.3125Z" fill="black"/>
<path d="M21.7258 23.2744L23.275 21.7252L29.3686 27.8185L27.8194 29.3678L21.7258 23.2744Z" fill="black"/>
<path d="M25.3125 22.5C25.3125 24.0534 24.0525 25.3125 22.5 25.3125C20.9466 25.3125 19.6875 24.0534 19.6875 22.5C19.6875 20.9466 20.9466 19.6875 22.5 19.6875C24.0525 19.6875 25.3125 20.9466 25.3125 22.5Z" fill="black"/>
<path d="M23.4375 22.5C23.4375 23.0166 23.0175 23.4375 22.5 23.4375C21.9825 23.4375 21.5625 23.0166 21.5625 22.5C21.5625 21.9816 21.9825 21.5625 22.5 21.5625C23.0175 21.5625 23.4375 21.9816 23.4375 22.5Z" fill="#F9B232"/>
</svg>
